…
``` r
df_test$df_Pred <-  df_xgb_preds + 1 #put this back into the test set 
```

#### For every nation, take the average output of its defenders to give an overall defense rank. The same will be done for MF, FW and GK.

``` r
df_pred <- df_test %>%
  group_by(Nation) %>%  
  summarize_at(vars(Nation.Rank:df_Pred), mean)
df_pred
```

    ## # A tibble: 24 x 3
    ##    Nation             Nation.Rank df_Pred
    ##    <chr>                    <dbl>   <dbl>
    ##  1 Bernepamar                   8    7.97
    ##  2 Byasier Pujan               15   13.8 
    ##  3 Djipines                    16   14.9 
    ##  4 Dosqaly                      9   11.2 
    ##  5 Eastern Niasland            23   15.9 
    ##  6 Eastern Sleboube            19   18.3 
    ##  7 Esia                        14    8.17
    ##  8 Galamily                     7   15.4 
    ##  9 Giumle Lizeibon             10    9.13
    ## 10 Greri Landmoslands          11    4.64
    ## # … with 14 more rows
…
